<svg width="55" height="55" viewBox="0 0 55 55" fill="none" xmlns="http://www.w3.org/2000/svg">
<g clip-path="url(#clip0)">
<path d="M6.20969 46.129C4.7426 46.129 3.5484 47.3232 3.5484 48.7903C3.5484 50.2574 4.7426 51.4516 6.20969 51.4516C7.67678 51.4516 8.87098 50.2574 8.87098 48.7903C8.87098 47.3232 7.67678 46.129 6.20969 46.129ZM6.20969 49.6774C5.72109 49.6774 5.32259 49.2798 5.32259 48.7903C5.32259 48.3009 5.72109 47.9032 6.20969 47.9032C6.69829 47.9032 7.09679 48.3009 7.09679 48.7903C7.09679 49.2798 6.69829 49.6774 6.20969 49.6774Z" fill="#FF0D35"/>
<path d="M55 6.53238C55 2.93114 52.0697 0 48.4676 0C46.7225 0 45.0821 0.679617 43.8485 1.91367L40.6886 5.07222C39.9973 4.66809 39.2159 4.43548 38.3934 4.43548C36.8223 4.43548 35.3808 5.22772 34.5366 6.55317L29.0303 15.205L30.6802 16.8548L28.3871 19.1488L27.7911 18.5528C27.2683 18.0295 26.5731 17.7419 25.8332 17.7419C24.3064 17.7419 23.0645 18.9838 23.0645 20.5106C23.0645 21.2396 23.3599 21.953 23.8754 22.4685L24.4714 23.0645L22.1774 25.3585L21.5814 24.7625C21.0586 24.2392 20.3634 23.9516 19.6236 23.9516C18.0967 23.9516 16.8548 25.1935 16.8548 26.7203C16.8548 27.4493 17.1502 28.1627 17.6657 28.6782L18.2617 29.2742L15.9677 31.5682L15.3717 30.9722C14.8489 30.4489 14.1537 30.1613 13.4139 30.1613C11.887 30.1613 10.6452 31.4031 10.6452 32.93C10.6452 33.659 10.9406 34.3724 11.456 34.8879L12.052 35.4839L9.75806 37.7778L9.16205 37.1818C8.63923 36.6586 7.94402 36.371 7.2042 36.371C5.67733 36.371 4.43548 37.6128 4.43548 39.1397C4.43548 39.8687 4.73089 40.5821 5.24635 41.0975L5.84236 41.6935L1.54549 45.9896C0.549238 46.9867 0 48.3121 0 49.7216C0 52.6324 2.36761 55 5.2784 55C6.68788 55 8.01333 54.4508 9.01044 53.4536L13.3065 49.1576L13.9025 49.7537C14.4253 50.2769 15.1205 50.5645 15.8603 50.5645C17.3872 50.5645 18.629 49.3227 18.629 47.7958C18.629 47.0668 18.3336 46.3534 17.8182 45.838L17.2222 45.2419L19.5161 42.948L20.1121 43.544C20.635 44.0672 21.3302 44.3548 22.07 44.3548C23.5969 44.3548 24.8387 43.113 24.8387 41.5861C24.8387 40.8571 24.5433 40.1437 24.0278 39.6283L23.4318 39.0323L25.7258 36.7383L26.3218 37.3343C26.8446 37.8575 27.5399 38.1452 28.2797 38.1452C29.8065 38.1452 31.0484 36.9033 31.0484 35.3764C31.0484 34.6475 30.753 33.9341 30.2375 33.4186L29.6415 32.8226L31.9355 30.5286L32.5315 31.1246C33.0543 31.6479 33.7495 31.9355 34.4894 31.9355C36.0162 31.9355 37.2581 30.6936 37.2581 29.1668C37.2581 28.4378 36.9627 27.7244 36.4472 27.2089L35.8512 26.6129L38.1452 24.3189L39.795 25.9688L48.4468 20.4626C49.7731 19.6201 50.5645 18.1786 50.5645 16.6075C50.5645 15.785 50.3319 15.0035 49.9265 14.3114L53.0863 11.1524C54.3204 9.91876 55 8.27755 55 6.53238ZM7.75517 52.1992C7.09418 52.8611 6.21401 53.2258 5.2784 53.2258C3.3461 53.2258 1.77419 51.6539 1.77419 49.7216C1.77419 48.786 2.13891 47.9058 2.80077 47.244L7.09677 42.948L12.052 47.9032L7.75517 52.1992ZM15.8603 48.7903C15.5944 48.7903 15.3449 48.6872 15.1569 48.4992L6.50076 39.8431C6.31623 39.6577 6.20968 39.4013 6.20968 39.1397C6.20968 38.5913 6.65582 38.1452 7.2042 38.1452C7.47015 38.1452 7.71965 38.2483 7.90764 38.4362L16.5638 47.0924C16.7483 47.2778 16.8548 47.5342 16.8548 47.7958C16.8548 48.3442 16.4087 48.7903 15.8603 48.7903ZM15.9677 43.9875L11.0125 39.0323L13.3065 36.7383L18.2617 41.6935L15.9677 43.9875ZM22.07 42.5806C21.804 42.5806 21.5545 42.4776 21.3666 42.2896L12.7104 33.6334C12.5259 33.4481 12.4194 33.1916 12.4194 32.93C12.4194 32.3816 12.8655 31.9355 13.4139 31.9355C13.6798 31.9355 13.9293 32.0386 14.1173 32.2266L22.7734 40.8827C22.958 41.0681 23.0645 41.3245 23.0645 41.5861C23.0645 42.1345 22.6184 42.5806 22.07 42.5806ZM22.1774 37.7778L17.2222 32.8226L19.5161 30.5286L24.4714 35.4839L22.1774 37.7778ZM28.2797 36.371C28.0137 36.371 27.7642 36.2679 27.5762 36.0799L18.9201 27.4238C18.7356 27.2384 18.629 26.9819 18.629 26.7203C18.629 26.172 19.0752 25.7258 19.6236 25.7258C19.8895 25.7258 20.139 25.8289 20.327 26.0169L28.9831 34.673C29.1676 34.8584 29.2742 35.1148 29.2742 35.3764C29.2742 35.9248 28.828 36.371 28.2797 36.371ZM28.3871 31.5682L23.4318 26.6129L25.7258 24.3189L30.6811 29.2742L28.3871 31.5682ZM34.4894 30.1613C34.2234 30.1613 33.9739 30.0582 33.7859 29.8702L25.1298 21.2141C24.9453 21.0287 24.8387 20.7723 24.8387 20.5106C24.8387 19.9623 25.2849 19.5161 25.8332 19.5161C26.0992 19.5161 26.3487 19.6192 26.5367 19.8072L35.1928 28.4633C35.3773 28.6487 35.4839 28.9051 35.4839 29.1668C35.4839 29.7151 35.0377 30.1613 34.4894 30.1613ZM34.5968 25.3585L29.6415 20.4032L31.9355 18.1092L36.8908 23.0645L34.5968 25.3585ZM31.2914 14.9563L35.146 8.90042L46.0996 19.854L40.0437 23.7086L31.2914 14.9563ZM47.6186 18.8642L36.1358 7.38136C36.662 6.65149 37.4868 6.20968 38.3934 6.20968C39.1405 6.20968 39.8431 6.50076 40.3707 7.0292L47.9708 14.6284C48.4992 15.1569 48.7903 15.8595 48.7903 16.6075C48.7903 17.5141 48.3485 18.3388 47.6186 18.8642ZM48.7903 12.9391L42.0609 6.20968L45.1025 3.16765C46.0013 2.26929 47.1972 1.77419 48.4676 1.77419C51.0917 1.77419 53.2258 3.90834 53.2258 6.53238C53.2258 7.80368 52.7307 8.99875 51.8324 9.89754L48.7903 12.9391Z" fill="#FF0D35"/>
<path d="M48.7903 3.5484C47.3232 3.5484 46.129 4.7426 46.129 6.20969C46.129 7.67678 47.3232 8.87098 48.7903 8.87098C50.2574 8.87098 51.4516 7.67678 51.4516 6.20969C51.4516 4.7426 50.2574 3.5484 48.7903 3.5484ZM48.7903 7.09679C48.3017 7.09679 47.9032 6.69915 47.9032 6.20969C47.9032 5.72023 48.3017 5.32259 48.7903 5.32259C49.2789 5.32259 49.6774 5.72023 49.6774 6.20969C49.6774 6.69915 49.2789 7.09679 48.7903 7.09679Z" fill="#FF0D35"/>
</g>
<defs>
<clipPath id="clip0">
<rect width="55" height="55" fill="white"/>
</clipPath>
</defs>
</svg>
