<svg width="55" height="55" viewBox="0 0 55 55" fill="none" xmlns="http://www.w3.org/2000/svg">
<path d="M17.4167 11.9167H13.75V13.75H17.4167V11.9167Z" fill="#FF0D35"/>
<path d="M17.4167 22H18.3333C19.0624 21.9992 19.7614 21.7092 20.277 21.1937C20.7925 20.6781 21.0825 19.9791 21.0833 19.25V17.4167H19.25V19.25C19.2497 19.4931 19.153 19.726 18.9812 19.8979C18.8093 20.0697 18.5764 20.1664 18.3333 20.1667H17.4167V22Z" fill="#FF0D35"/>
<path d="M15.5833 16.5C16.0896 16.5 16.5 16.0896 16.5 15.5834C16.5 15.0771 16.0896 14.6667 15.5833 14.6667C15.0771 14.6667 14.6667 15.0771 14.6667 15.5834C14.6667 16.0896 15.0771 16.5 15.5833 16.5Z" fill="#FF0D35"/>
<path d="M24.75 11.9167H21.0833V13.75H24.75V11.9167Z" fill="#FF0D35"/>
<path d="M22.9167 16.5C23.4229 16.5 23.8333 16.0896 23.8333 15.5834C23.8333 15.0771 23.4229 14.6667 22.9167 14.6667C22.4104 14.6667 22 15.0771 22 15.5834C22 16.0896 22.4104 16.5 22.9167 16.5Z" fill="#FF0D35"/>
<path d="M52.25 19.25H33C32.2709 19.2508 31.5719 19.5408 31.0564 20.0564C30.5408 20.5719 30.2508 21.2709 30.25 22V23.7216L27.5758 22.1617C28.1305 20.9617 28.4175 19.6553 28.4167 18.3333V5.5C28.4156 4.52788 28.0289 3.59589 27.3415 2.90849C26.6541 2.2211 25.7221 1.83444 24.75 1.83333H24.2567C23.935 1.27632 23.4724 0.813717 22.9154 0.491931C22.3584 0.170145 21.7266 0.000494262 21.0833 0H17.4167C15.4724 0.0021954 13.6084 0.775517 12.2336 2.15031C10.8589 3.5251 10.0855 5.38909 10.0833 7.33333V18.3333C10.0825 19.6553 10.3695 20.9617 10.9242 22.1617L2.27388 27.2077C1.583 27.6125 1.0098 28.1907 0.610981 28.8851C0.212165 29.5795 0.00155907 30.3659 0 31.1667V54.0833C2.43111e-06 54.3265 0.0965802 54.5596 0.268488 54.7315C0.440396 54.9034 0.673552 55 0.916667 55H52.25C52.9791 54.9992 53.6781 54.7092 54.1936 54.1936C54.7092 53.6781 54.9992 52.9791 55 52.25V22C54.9992 21.2709 54.7092 20.5719 54.1936 20.0564C53.6781 19.5408 52.9791 19.2508 52.25 19.25ZM33 21.0833H52.25C52.493 21.0836 52.726 21.1803 52.8979 21.3521C53.0697 21.524 53.1664 21.757 53.1667 22V24.75H32.0833V22C32.0836 21.757 32.1803 21.524 32.3521 21.3521C32.524 21.1803 32.757 21.0836 33 21.0833ZM11.9167 18.3333V9.54634L13.75 7.713C13.9931 7.4699 14.3229 7.33333 14.6667 7.33333C15.0105 7.33333 15.3402 7.4699 15.5833 7.713L17.0369 9.16667C17.6239 9.7536 18.4199 10.0833 19.25 10.0833C20.0801 10.0833 20.8762 9.7536 21.4631 9.16667L22.9167 7.713C23.1598 7.4699 23.4895 7.33333 23.8333 7.33333C24.1771 7.33333 24.5069 7.4699 24.75 7.713L26.5833 9.54634V18.3333C26.5833 20.2783 25.8107 22.1435 24.4355 23.5188C23.0602 24.8941 21.1949 25.6667 19.25 25.6667C17.3051 25.6667 15.4398 24.8941 14.0646 23.5188C12.6893 22.1435 11.9167 20.2783 11.9167 18.3333ZM26.5833 5.5V6.95357L26.0464 6.41667C25.6851 6.05374 25.2398 5.78553 24.75 5.6358V3.66667C25.2361 3.66722 25.7021 3.86056 26.0457 4.20425C26.3894 4.54795 26.5828 5.01394 26.5833 5.5ZM17.4167 1.83333H21.0833C21.5694 1.83389 22.0354 2.02722 22.3791 2.37092C22.7228 2.71461 22.9161 3.18061 22.9167 3.66667V5.6358C22.4269 5.78553 21.9816 6.05374 21.6202 6.41667L20.1667 7.87033C19.9235 8.11343 19.5938 8.25 19.25 8.25C18.9062 8.25 18.5765 8.11343 18.3333 7.87033L16.8798 6.41667C16.2928 5.82973 15.4967 5.5 14.6667 5.5C13.8366 5.5 13.0405 5.82973 12.4536 6.41667L11.9324 6.93778C12.0338 5.55195 12.6554 4.25568 13.6725 3.30898C14.6897 2.36227 16.0271 1.83515 17.4167 1.83333ZM1.83333 53.1667V50.0733C2.64882 51.2996 3.7004 52.3512 4.92669 53.1667H1.83333ZM24.75 53.1667H11C8.56969 53.1639 6.23971 52.1973 4.52122 50.4788C2.80273 48.7603 1.83608 46.4303 1.83333 44V31.1667C1.83426 30.6862 1.96062 30.2143 2.19992 29.7977C2.43922 29.3811 2.78316 29.0341 3.1977 28.7912L11.8548 23.7413C12.7044 24.9059 13.8171 25.8533 15.1022 26.5064C16.3873 27.1596 17.8084 27.5 19.25 27.5C20.6915 27.5 22.1127 27.1596 23.3978 26.5064C24.6829 25.8533 25.7955 24.9059 26.6452 23.7413L30.25 25.8441V43.2663L25.447 46.697L13.2721 44.5485C12.6351 44.4369 12.058 44.1041 11.6423 43.6087C11.2267 43.1133 10.9992 42.4871 11 41.8404V36.6667H9.16667V41.8404C9.16537 42.9182 9.54447 43.9619 10.2372 44.7876C10.9299 45.6132 11.8918 46.168 12.9534 46.354L24.75 48.4357V53.1667ZM26.5833 53.1667V48.1384L31.8808 44.3545C31.9761 44.2864 32.0897 44.2485 32.2067 44.2458C32.3238 44.2431 32.439 44.2756 32.5374 44.3392C32.6358 44.4028 32.7127 44.4945 32.7583 44.6024C32.8039 44.7102 32.816 44.8293 32.793 44.9442L32.1011 48.4036C32.0617 48.6007 32.0882 48.8054 32.1765 48.9861C32.2649 49.1667 32.4102 49.3133 32.59 49.4032L34.1238 50.1701C35.6822 50.9534 37.4498 51.2191 39.1696 50.9288L41.4585 50.5474C41.5204 50.537 41.584 50.5493 41.6378 50.5819C41.6915 50.6145 41.7317 50.6652 41.7511 50.725C41.7705 50.7847 41.7678 50.8495 41.7436 50.9074C41.7193 50.9654 41.675 51.0127 41.6188 51.0407L38.7218 52.4892C37.8304 52.9336 36.8482 53.1655 35.8522 53.1667H26.5833ZM52.25 53.1667H41.4664L42.4388 52.6805C42.8876 52.456 43.241 52.078 43.4347 51.6151C43.6284 51.1522 43.6496 50.6352 43.4944 50.158C43.3393 49.6808 43.018 49.2751 42.5891 49.0147C42.1601 48.7543 41.652 48.6565 41.157 48.739L38.8681 49.1204C37.5306 49.3462 36.1558 49.1395 34.9438 48.5303L34.0362 48.0765L34.5907 45.3037C34.6632 44.9417 34.6518 44.5678 34.5573 44.2109C34.4628 43.854 34.2878 43.5234 34.0457 43.2446C33.8036 42.9659 33.5009 42.7463 33.1607 42.6027C32.8205 42.4592 32.452 42.3955 32.0833 42.4165V26.5833H53.1667V52.25C53.1664 52.493 53.0697 52.726 52.8979 52.8979C52.726 53.0697 52.493 53.1664 52.25 53.1667Z" fill="#FF0D35"/>
<path d="M34.8333 23.8333C35.3396 23.8333 35.75 23.4229 35.75 22.9167C35.75 22.4104 35.3396 22 34.8333 22C34.3271 22 33.9167 22.4104 33.9167 22.9167C33.9167 23.4229 34.3271 23.8333 34.8333 23.8333Z" fill="#FF0D35"/>
<path d="M37.5833 23.8333C38.0896 23.8333 38.5 23.4229 38.5 22.9167C38.5 22.4104 38.0896 22 37.5833 22C37.0771 22 36.6667 22.4104 36.6667 22.9167C36.6667 23.4229 37.0771 23.8333 37.5833 23.8333Z" fill="#FF0D35"/>
<path d="M40.3333 23.8333C40.8396 23.8333 41.25 23.4229 41.25 22.9167C41.25 22.4104 40.8396 22 40.3333 22C39.8271 22 39.4167 22.4104 39.4167 22.9167C39.4167 23.4229 39.8271 23.8333 40.3333 23.8333Z" fill="#FF0D35"/>
<path d="M47.6667 44.9167H43.0833V46.75H47.6667V44.9167Z" fill="#FF0D35"/>
<path d="M41.25 44.9167H38.5V46.75H41.25V44.9167Z" fill="#FF0D35"/>
<path d="M49.0918 32.2373L43.5918 28.5706C43.4412 28.4702 43.2643 28.4166 43.0833 28.4166C42.9023 28.4166 42.7254 28.4702 42.5749 28.5706L37.0749 32.2373C36.9493 32.321 36.8463 32.4344 36.7751 32.5675C36.7039 32.7005 36.6667 32.8491 36.6667 33V38.5C36.6667 38.6423 36.6998 38.7826 36.7634 38.9099C36.8271 39.0372 36.9195 39.1479 37.0333 39.2333L40.7 41.9833C40.8587 42.1023 41.0517 42.1667 41.25 42.1667H44.9167C45.115 42.1667 45.308 42.1023 45.4666 41.9833L49.1333 39.2333C49.2472 39.1479 49.3396 39.0372 49.4032 38.9099C49.4669 38.7826 49.5 38.6423 49.5 38.5V33C49.5 32.8491 49.4627 32.7005 49.3915 32.5675C49.3203 32.4344 49.2174 32.321 49.0918 32.2373ZM43.0833 30.435L46.9308 33L43.0833 35.565L39.2358 33L43.0833 30.435ZM44.6111 40.3333H41.5556L38.5 38.0417V34.7128L42.5749 37.4293C42.7254 37.5297 42.9024 37.5833 43.0833 37.5833C43.2643 37.5833 43.4412 37.5297 43.5918 37.4293L47.6667 34.7128V38.0417L44.6111 40.3333Z" fill="#FF0D35"/>
</svg>
