<svg width="16" height="16" viewBox="0 0 16 16" fill="none" xmlns="http://www.w3.org/2000/svg">
<g clip-path="url(#clip0)">
<path d="M15.7657 2.35921C15.4533 2.04677 14.9468 2.04677 14.6343 2.35921L5.04983 11.9438L1.3657 8.25968C1.0533 7.94724 0.546797 7.94727 0.234328 8.25968C-0.0781094 8.57208 -0.0781094 9.07858 0.234328 9.39102L4.48414 13.6408C4.79645 13.9532 5.30333 13.953 5.61552 13.6408L15.7657 3.49058C16.0781 3.17817 16.0781 2.67164 15.7657 2.35921Z" fill="#FF0D35"/>
</g>
<defs>
<clipPath id="clip0">
<rect width="16" height="16" fill="white"/>
</clipPath>
</defs>
</svg>
