<svg width="37" height="43" viewBox="0 0 37 43" fill="none" xmlns="http://www.w3.org/2000/svg">
<mask id="mask0" mask-type="alpha" maskUnits="userSpaceOnUse" x="0" y="0" width="37" height="43">
<path d="M0.00639168 21.4999C0.00638992 18.0292 0.00969781 14.5585 5.39315e-06 11.0877C-0.000753849 10.8153 0.0785284 10.6678 0.315433 10.5301C6.29927 7.0531 12.2785 3.56807 18.2553 0.0785543C18.4338 -0.0256936 18.5591 -0.0264763 18.738 0.0779623C24.7313 3.5765 30.7276 7.06982 36.7266 10.5584C36.9197 10.6707 37.0002 10.7888 37 11.0229C36.9931 18.0023 36.9932 24.9819 36.9992 31.9613C36.9994 32.1895 36.9317 32.3152 36.7332 32.4305C30.7419 35.9134 24.7536 39.4016 18.7695 42.8971C18.5581 43.0206 18.415 43.0072 18.2125 42.889C12.2441 39.4039 6.27264 35.9243 0.297587 32.451C0.0828282 32.3262 -0.0005071 32.1958 0.000172771 31.9406C0.00941655 28.4604 0.00639339 24.9801 0.00639168 21.4999ZM33.6199 21.5082C33.6199 18.6652 33.617 15.8223 33.6255 12.9793C33.6262 12.7579 33.5566 12.643 33.3698 12.5343C28.4806 9.69211 23.5944 6.8445 18.7111 3.99209C18.5488 3.89727 18.4347 3.90417 18.2776 3.99592C13.3939 6.84775 8.50796 9.69569 3.61963 12.5394C3.44802 12.6392 3.36327 12.7389 3.36352 12.9554C3.37027 18.6509 3.37012 24.3464 3.36383 30.0418C3.36361 30.2442 3.43572 30.3451 3.59991 30.4407C8.49602 33.2898 13.3901 36.1424 18.2816 38.9997C18.4417 39.0932 18.5556 39.0913 18.7151 38.9982C23.5985 36.1459 28.4843 33.2978 33.3736 30.4557C33.5631 30.3455 33.6257 30.2269 33.6251 30.0086C33.6172 27.1752 33.6199 24.3417 33.6199 21.5082Z" fill="white"/>
<path d="M10.1166 20.5254C11.8044 21.5074 13.4415 22.4598 15.1296 23.4419C15.1296 23.2885 15.1296 23.1889 15.1296 23.0894C15.1296 21.9958 15.1357 20.9022 15.1244 19.8088C15.1222 19.5976 15.1942 19.4886 15.3715 19.3875C16.3473 18.8307 17.3182 18.2653 18.2841 17.6913C18.4468 17.5947 18.5632 17.6043 18.7198 17.697C19.6867 18.2692 20.6577 18.8348 21.6325 19.3931C21.7995 19.4888 21.8672 19.5947 21.8652 19.7947C21.8545 20.8882 21.86 21.9817 21.8599 23.0753C21.8599 23.1767 21.8599 23.2781 21.8599 23.4447C23.5512 22.4608 25.1925 21.506 26.8765 20.5264C26.7531 20.4471 26.6716 20.3905 26.5863 20.3406C25.6406 19.7876 24.6966 19.2318 23.7462 18.6873C23.5845 18.5946 23.5282 18.489 23.5295 18.3039C23.5374 17.1629 23.5379 16.0217 23.529 14.8807C23.5275 14.6904 23.5976 14.5931 23.7551 14.5029C24.7383 13.9403 25.7177 13.3709 26.6933 12.795C26.8416 12.7075 26.951 12.7004 27.1033 12.7904C28.0865 13.372 29.0744 13.9456 30.0656 14.5132C30.2172 14.6 30.2712 14.7 30.2709 14.8742C30.2662 17.9837 30.2661 21.0932 30.2712 24.2027C30.2715 24.3787 30.2122 24.4766 30.0634 24.5619C29.1053 25.1115 28.1568 25.678 27.1936 26.2182C26.9614 26.3484 26.8917 26.4981 26.8949 26.7557C26.9083 27.8586 26.896 28.9617 26.905 30.0647C26.9066 30.2526 26.844 30.3522 26.6851 30.4444C24.023 31.9898 21.3638 33.5403 18.7067 35.0945C18.5594 35.1807 18.4484 35.1891 18.2962 35.1C15.6314 33.5403 12.9642 31.9849 10.2933 30.4359C10.1276 30.3398 10.0842 30.2299 10.0853 30.0497C10.0925 28.9276 10.082 27.8054 10.095 26.6835C10.0975 26.4597 10.0216 26.3452 9.83513 26.2391C8.87517 25.6931 7.92506 25.1293 6.96577 24.5821C6.79785 24.4863 6.72913 24.3814 6.72956 24.1817C6.73583 21.0817 6.7355 17.9817 6.73003 14.8818C6.7297 14.6955 6.78819 14.5926 6.94922 14.5006C7.93296 13.9391 8.91227 13.3694 9.88777 12.7933C10.0375 12.705 10.1471 12.7032 10.2979 12.7924C11.2812 13.3738 12.2689 13.9478 13.26 14.5155C13.4103 14.6016 13.4708 14.6974 13.4697 14.8736C13.4626 16.0242 13.462 17.1749 13.4704 18.3254C13.4718 18.5058 13.4022 18.5969 13.2562 18.681C12.2991 19.2329 11.3462 19.7923 10.3924 20.3499C10.3134 20.3961 10.2377 20.4481 10.1166 20.5254Z" fill="white"/>
<path d="M15.1297 11.6784C15.1297 11.1081 15.1352 10.5378 15.1262 9.96769C15.1237 9.80572 15.1721 9.71141 15.315 9.62933C16.3133 9.05571 17.3079 8.47545 18.2996 7.89012C18.4374 7.80871 18.5421 7.79858 18.685 7.8831C19.6761 8.46938 20.6711 9.04902 21.6689 9.62359C21.8088 9.7042 21.8647 9.79435 21.8638 9.95976C21.8569 11.1192 21.8576 12.2788 21.8636 13.4384C21.8644 13.5987 21.8208 13.6962 21.6766 13.7788C20.6779 14.3516 19.683 14.931 18.6911 15.5156C18.5519 15.5977 18.4466 15.6 18.3061 15.5172C17.3143 14.9325 16.3195 14.3528 15.3203 13.781C15.1656 13.6924 15.123 13.588 15.1259 13.4177C15.1358 12.8381 15.1297 12.2582 15.1297 11.6784Z" fill="white"/>
</mask>
<g mask="url(#mask0)">
<path d="M0.00639168 21.4999C0.00638992 18.0292 0.00969781 14.5585 5.39315e-06 11.0877C-0.000753849 10.8153 0.0785284 10.6678 0.315433 10.5301C6.29927 7.0531 12.2785 3.56807 18.2553 0.0785543C18.4338 -0.0256936 18.5591 -0.0264763 18.738 0.0779623C24.7313 3.5765 30.7276 7.06982 36.7266 10.5584C36.9197 10.6707 37.0002 10.7888 37 11.0229C36.9931 18.0023 36.9932 24.9819 36.9992 31.9613C36.9994 32.1895 36.9317 32.3152 36.7332 32.4305C30.7419 35.9134 24.7536 39.4016 18.7695 42.8971C18.5581 43.0206 18.415 43.0072 18.2125 42.889C12.2441 39.4039 6.27264 35.9243 0.297587 32.451C0.0828282 32.3262 -0.0005071 32.1958 0.000172771 31.9406C0.00941655 28.4604 0.00639339 24.9801 0.00639168 21.4999ZM33.6199 21.5082C33.6199 18.6652 33.617 15.8223 33.6255 12.9793C33.6262 12.7579 33.5566 12.643 33.3698 12.5343C28.4806 9.69211 23.5944 6.8445 18.7111 3.99209C18.5488 3.89727 18.4347 3.90417 18.2776 3.99592C13.3939 6.84775 8.50796 9.69569 3.61963 12.5394C3.44802 12.6392 3.36327 12.7389 3.36352 12.9554C3.37027 18.6509 3.37012 24.3464 3.36383 30.0418C3.36361 30.2442 3.43572 30.3451 3.59991 30.4407C8.49602 33.2898 13.3901 36.1424 18.2816 38.9997C18.4417 39.0932 18.5556 39.0913 18.7151 38.9982C23.5985 36.1459 28.4843 33.2978 33.3736 30.4557C33.5631 30.3455 33.6257 30.2269 33.6251 30.0086C33.6172 27.1752 33.6199 24.3417 33.6199 21.5082Z" fill="#7B7B7B"/>
<path d="M10.1166 20.5254C11.8044 21.5074 13.4415 22.4598 15.1296 23.4419C15.1296 23.2885 15.1296 23.1889 15.1296 23.0894C15.1296 21.9958 15.1357 20.9022 15.1244 19.8088C15.1222 19.5976 15.1942 19.4886 15.3715 19.3875C16.3473 18.8307 17.3182 18.2653 18.2841 17.6913C18.4468 17.5947 18.5632 17.6043 18.7198 17.697C19.6867 18.2692 20.6577 18.8348 21.6325 19.3931C21.7995 19.4888 21.8672 19.5947 21.8652 19.7947C21.8545 20.8882 21.86 21.9817 21.8599 23.0753C21.8599 23.1767 21.8599 23.2781 21.8599 23.4447C23.5512 22.4608 25.1925 21.506 26.8765 20.5264C26.7531 20.4471 26.6716 20.3905 26.5863 20.3406C25.6406 19.7876 24.6966 19.2318 23.7462 18.6873C23.5845 18.5946 23.5282 18.489 23.5295 18.3039C23.5374 17.1629 23.5379 16.0217 23.529 14.8807C23.5275 14.6904 23.5976 14.5931 23.7551 14.5029C24.7383 13.9403 25.7177 13.3709 26.6933 12.795C26.8416 12.7075 26.951 12.7004 27.1033 12.7904C28.0865 13.372 29.0744 13.9456 30.0656 14.5132C30.2172 14.6 30.2712 14.7 30.2709 14.8742C30.2662 17.9837 30.2661 21.0932 30.2712 24.2027C30.2715 24.3787 30.2122 24.4766 30.0634 24.5619C29.1053 25.1115 28.1568 25.678 27.1936 26.2182C26.9614 26.3484 26.8917 26.4981 26.8949 26.7557C26.9083 27.8586 26.896 28.9617 26.905 30.0647C26.9066 30.2526 26.844 30.3522 26.6851 30.4444C24.023 31.9898 21.3638 33.5403 18.7067 35.0945C18.5594 35.1807 18.4484 35.1891 18.2962 35.1C15.6314 33.5403 12.9642 31.9849 10.2933 30.4359C10.1276 30.3398 10.0842 30.2299 10.0853 30.0497C10.0925 28.9276 10.082 27.8054 10.095 26.6835C10.0975 26.4597 10.0216 26.3452 9.83513 26.2391C8.87517 25.6931 7.92506 25.1293 6.96577 24.5821C6.79785 24.4863 6.72913 24.3814 6.72956 24.1817C6.73583 21.0817 6.7355 17.9817 6.73003 14.8818C6.7297 14.6955 6.78819 14.5926 6.94922 14.5006C7.93296 13.9391 8.91227 13.3694 9.88777 12.7933C10.0375 12.705 10.1471 12.7032 10.2979 12.7924C11.2812 13.3738 12.2689 13.9478 13.26 14.5155C13.4103 14.6016 13.4708 14.6974 13.4697 14.8736C13.4626 16.0242 13.462 17.1749 13.4704 18.3254C13.4718 18.5058 13.4022 18.5969 13.2562 18.681C12.2991 19.2329 11.3462 19.7923 10.3924 20.3499C10.3134 20.3961 10.2377 20.4481 10.1166 20.5254Z" fill="#7B7B7B"/>
<path d="M15.1297 11.6784C15.1297 11.1081 15.1352 10.5378 15.1262 9.96769C15.1237 9.80572 15.1721 9.71141 15.315 9.62933C16.3133 9.05571 17.3079 8.47545 18.2996 7.89012C18.4374 7.80871 18.5421 7.79858 18.685 7.8831C19.6761 8.46938 20.6711 9.04902 21.6689 9.62359C21.8088 9.7042 21.8647 9.79435 21.8638 9.95976C21.8569 11.1192 21.8576 12.2788 21.8636 13.4384C21.8644 13.5987 21.8208 13.6962 21.6766 13.7788C20.6779 14.3516 19.683 14.931 18.6911 15.5156C18.5519 15.5977 18.4466 15.6 18.3061 15.5172C17.3143 14.9325 16.3195 14.3528 15.3203 13.781C15.1656 13.6924 15.123 13.588 15.1259 13.4177C15.1358 12.8381 15.1297 12.2582 15.1297 11.6784Z" fill="#7B7B7B"/>
<path d="M18.5 11.777L15.0996 9.74645L18.5 7.76367L21.9004 9.74645L18.5 11.777Z" fill="#7B7B7B"/>
<path d="M10.106 16.6266L6.68188 14.6438L10.106 12.6133L13.5064 14.5961L10.106 16.6266Z" fill="#7B7B7B"/>
<path d="M10.106 16.6268L13.4826 14.6201V18.5618L10.106 20.5207V16.6268Z" fill="#7B7B7B"/>
<path d="M26.894 16.6745L23.528 14.6621V18.6211L26.8702 20.5206L26.894 16.6745Z" fill="#7B7B7B"/>
<path d="M18.5 11.7772L21.8872 9.75391L21.8873 13.6956L18.5 15.6796V11.7772Z" fill="#7B7B7B"/>
<path d="M26.894 16.6745L23.4936 14.6439L26.894 12.6611L30.2944 14.6439L26.894 16.6745Z" fill="#7B7B7B"/>
<path d="M10.106 16.6269L6.75321 14.6919L5.44537 21.7869L5.94473 28.3086L18.5 35.3319V21.5002L14.9569 19.4697L15.1234 23.4352L10.106 20.5208V16.6269Z" fill="#7B7B7B"/>
<path d="M18.5 21.5002L15.0045 19.4935L18.4762 17.4868L21.9955 19.4935L18.5 21.5002Z" fill="#7B7B7B"/>
</g>
</svg>
