<svg width="20" height="20" viewBox="0 0 20 20" fill="none" xmlns="http://www.w3.org/2000/svg">
<path d="M17.3025 11.1514C16.5018 9.98847 16.0933 9.11587 15.9845 7.66393C15.9029 6.57887 16.3591 5.32587 16.3591 5.32587C15.7937 5.7024 15.7875 5.66207 15.4143 5.97047C13.4718 7.57593 12.9643 9.18267 12.9049 9.3904C12.9008 9.40513 12.8985 9.4136 12.8985 9.4136L12.9049 9.3904C12.9049 9.3904 14.4231 3.45093 10.1968 0.685133C9.84606 0.455667 9.03706 0 9.03706 0C9.03706 0 11.1354 5.14427 7.37846 8.19607C6.63899 5.178 2.73513 5.14087 2.73513 5.14087C2.73513 5.14087 3.03513 6.1924 3.08333 6.44113C3.71599 9.72107 1.77686 10.759 1.38299 13.8596C1.42793 13.5037 1.41006 13.6454 1.38273 13.8615C1.38259 13.8623 1.38246 13.8631 1.38246 13.8639C1.38253 13.8635 1.38253 13.8632 1.38259 13.8628C1.38246 13.8637 1.38239 13.8646 1.38233 13.8654C1.07493 16.2995 2.23479 18.1847 4.01719 19.4567C4.10039 18.5975 4.45259 17.7453 4.94206 17.0341C5.49599 16.2297 5.77866 15.626 5.85366 14.6217C5.90966 13.871 5.59453 13.0041 5.59453 13.0041C5.98506 13.2648 5.98999 13.2369 6.24806 13.4502C7.33973 14.3525 7.77619 15.2554 7.92359 15.6394C7.92853 15.6364 7.93359 15.6335 7.93893 15.6305C7.75273 14.7901 7.22786 11.5149 9.85739 9.794C10.0999 9.63553 10.6596 9.32027 10.6596 9.32027C10.6596 9.32027 9.17053 12.5763 12.4488 15.221C12.3756 14.1386 12.7885 13.1392 13.5613 12.3691C13.9811 11.9511 14.7376 11.7503 14.7376 11.7503C14.7376 11.7503 14.5298 12.4781 14.4966 12.65C14.0589 14.9195 15.9642 16.6843 15.5571 18.834C15.4808 19.2369 15.3715 19.628 15.219 19.9999H15.401C16.3674 19.4839 17.2643 18.8127 17.8785 17.8919C19.276 15.7967 18.6479 13.1055 17.3025 11.1514Z" fill="#FF0D35"/>
</svg>
