<svg width="7" height="11" viewBox="0 0 7 11" fill="none" xmlns="http://www.w3.org/2000/svg">
<path d="M0.590433 4.95544L5.32027 0.225765C5.62114 -0.0752553 6.10896 -0.0752553 6.40969 0.225765C6.71044 0.526517 6.71044 1.01431 6.40969 1.31504L2.22451 5.50008L6.40957 9.68498C6.71032 9.98585 6.71032 10.4736 6.40957 10.7743C6.10881 11.0752 5.62102 11.0752 5.32015 10.7743L0.590312 6.04459C0.439935 5.89414 0.364831 5.69717 0.364831 5.5001C0.364831 5.30294 0.440081 5.10582 0.590433 4.95544Z" fill="#1C252F"/>
</svg>
