<svg width="19" height="8" viewBox="0 0 19 8" fill="none" xmlns="http://www.w3.org/2000/svg">
<path d="M18.6301 4.43861C18.8254 4.24334 18.8254 3.92676 18.6301 3.7315L15.4482 0.549519C15.2529 0.354256 14.9363 0.354256 14.741 0.549519C14.5458 0.744781 14.5458 1.06136 14.741 1.25663L17.5695 4.08505L14.741 6.91348C14.5458 7.10874 14.5458 7.42532 14.741 7.62059C14.9363 7.81585 15.2529 7.81585 15.4482 7.62059L18.6301 4.43861ZM0.723389 4.58505H18.2766V3.58505H0.723389V4.58505Z" fill="white"/>
</svg>
