<svg width="16" height="8" viewBox="0 0 16 8" fill="none" xmlns="http://www.w3.org/2000/svg">
<path fill-rule="evenodd" clip-rule="evenodd" d="M14.7795 4.96332C15.3911 4.9629 15.8867 4.46698 15.8867 3.85537C15.8867 3.24346 15.3907 2.74741 14.7788 2.74741L5.56853 2.74741C4.9898 2.74741 4.52065 2.27826 4.52065 1.69952C4.52065 0.804487 3.471 0.321425 2.79117 0.903595L1.15775 2.30236C0.204622 3.11857 0.208699 4.59405 1.16632 5.40497L2.81376 6.80004C3.48842 7.37135 4.52285 6.89182 4.52285 6.00776C4.52285 5.43467 4.98723 4.96997 5.56033 4.96958L14.7795 4.96332Z" fill="black"/>
</svg>
