<svg width="16" height="18" viewBox="0 0 16 18" fill="none" xmlns="http://www.w3.org/2000/svg">
<path d="M15.8059 4.50695C14.7771 4.50695 13.8278 4.16612 13.0655 3.59113C12.1912 2.93198 11.5631 1.9651 11.3412 0.850688C11.2863 0.575341 11.2567 0.291192 11.2539 0H8.31488V8.03083L8.31136 12.4297C8.31136 13.6057 7.54553 14.6029 6.48393 14.9536C6.17584 15.0553 5.8431 15.1036 5.49663 15.0846C5.05438 15.0603 4.63996 14.9268 4.27975 14.7113C3.51322 14.2529 2.99351 13.4212 2.97942 12.4698C2.95724 10.9829 4.15933 9.77058 5.64522 9.77058C5.93852 9.77058 6.22021 9.81847 6.48393 9.90544V7.71041V6.92134C6.20577 6.88015 5.92268 6.85867 5.63641 6.85867C4.01004 6.85867 2.48894 7.53471 1.40164 8.75265C0.579823 9.67305 0.0868749 10.8473 0.01082 12.0786C-0.0888259 13.6962 0.503064 15.2339 1.65093 16.3683C1.81959 16.5349 1.9967 16.6895 2.1819 16.8321C3.16604 17.5894 4.36919 18 5.63641 18C5.92268 18 6.20577 17.9789 6.48393 17.9377C7.66771 17.7623 8.75994 17.2204 9.6219 16.3683C10.681 15.3215 11.2662 13.9318 11.2726 12.4526L11.2574 5.88369C11.7627 6.27347 12.3152 6.596 12.9081 6.84635C13.8303 7.23542 14.8081 7.4326 15.8144 7.43225V5.29814V4.50625C15.8151 4.50695 15.8066 4.50695 15.8059 4.50695Z" fill="#040404"/>
</svg>
