<svg width="21" height="20" viewBox="0 0 21 20" fill="none" xmlns="http://www.w3.org/2000/svg">
<g clip-path="url(#clip0)">
<path d="M19.3853 4.45C18.8428 3.485 18.254 3.3075 17.0553 3.24C15.8578 3.15875 12.8465 3.125 10.2378 3.125C7.62404 3.125 4.61154 3.15875 3.41529 3.23875C2.21904 3.3075 1.62904 3.48375 1.08154 4.45C0.522791 5.41375 0.235291 7.07375 0.235291 9.99625C0.235291 9.99875 0.235291 10 0.235291 10C0.235291 10.0025 0.235291 10.0038 0.235291 10.0038V10.0063C0.235291 12.9163 0.522791 14.5887 1.08154 15.5425C1.62904 16.5075 2.21779 16.6825 3.41404 16.7638C4.61154 16.8338 7.62404 16.875 10.2378 16.875C12.8465 16.875 15.8578 16.8337 17.0565 16.765C18.2553 16.6837 18.844 16.5088 19.3865 15.5438C19.9503 14.59 20.2353 12.9175 20.2353 10.0075C20.2353 10.0075 20.2353 10.0038 20.2353 10.0013C20.2353 10.0013 20.2353 9.99875 20.2353 9.9975C20.2353 7.07375 19.9503 5.41375 19.3853 4.45ZM7.73529 13.75V6.25L13.9853 10L7.73529 13.75Z" fill="#979797"/>
</g>
<defs>
<clipPath id="clip0">
<rect x="0.235291" width="20" height="20" fill="white"/>
</clipPath>
</defs>
</svg>
