<svg width="26" height="25" viewBox="0 0 26 25" fill="none" xmlns="http://www.w3.org/2000/svg">
<g clip-path="url(#clip0)">
<path d="M24.2305 5.5625C23.5523 4.35625 22.8164 4.13438 21.318 4.05C19.8211 3.94844 16.057 3.90625 12.7961 3.90625C9.52891 3.90625 5.76328 3.94844 4.26797 4.04844C2.77266 4.13438 2.03516 4.35469 1.35078 5.5625C0.652344 6.76719 0.292969 8.84219 0.292969 12.4953C0.292969 12.4984 0.292969 12.5 0.292969 12.5C0.292969 12.5031 0.292969 12.5047 0.292969 12.5047V12.5078C0.292969 16.1453 0.652344 18.2359 1.35078 19.4281C2.03516 20.6344 2.77109 20.8531 4.26641 20.9547C5.76328 21.0422 9.52891 21.0938 12.7961 21.0938C16.057 21.0938 19.8211 21.0422 21.3195 20.9562C22.818 20.8547 23.5539 20.6359 24.232 19.4297C24.9367 18.2375 25.293 16.1469 25.293 12.5094C25.293 12.5094 25.293 12.5047 25.293 12.5016C25.293 12.5016 25.293 12.4984 25.293 12.4969C25.293 8.84219 24.9367 6.76719 24.2305 5.5625ZM9.66797 17.1875V7.8125L17.4805 12.5L9.66797 17.1875Z" fill="black"/>
</g>
<defs>
<clipPath id="clip0">
<rect x="0.292969" width="25" height="25" fill="white"/>
</clipPath>
</defs>
</svg>
